<?xml version="1.0" encoding="UTF-8"?>
<grit latest_public_release="0" current_release="1" output_all_resource_defines="false">
  <outputs>
    <output filename="grit/settings_resources.h" type="rc_header">
      <emit emit_type='prepend'></emit>
    </output>
    <output filename="grit/settings_resources_map.cc"
            type="resource_map_source" />
    <output filename="grit/settings_resources_map.h"
            type="resource_map_header" />
    <output filename="settings_resources.pak" type="data_package" />
  </outputs>
  <release seq="1">
    <includes>
      <include name="IDR_SETTINGS_VULCANIZED_HTML" file="${root_gen_dir}\chrome\browser\resources\settings\vulcanized.html" use_base_dir="false" flattenhtml="true" allowexternalscript="true" type="BINDATA" compress="gzip" />
      <include name="IDR_SETTINGS_VULCANIZED_P2_HTML" file="${root_gen_dir}\chrome\browser\resources\settings\vulcanized.p2.html" use_base_dir="false" flattenhtml="true" allowexternalscript="true" type="BINDATA" compress="gzip" />
      <include name="IDR_SETTINGS_CRISPER_JS" file="${root_gen_dir}\chrome\browser\resources\settings\crisper.js" use_base_dir="false" flattenhtml="true" type="BINDATA" compress="gzip" />
      <include name="IDR_SETTINGS_LAZY_LOAD_VULCANIZED_HTML" file="${root_gen_dir}\chrome\browser\resources\settings\lazy_load.vulcanized.html" use_base_dir="false" flattenhtml="true" allowexternalscript="true" type="BINDATA" compress="gzip" />
      <include name="IDR_SETTINGS_LAZY_LOAD_VULCANIZED_P2_HTML" file="${root_gen_dir}\chrome\browser\resources\settings\lazy_load.vulcanized.p2.html" use_base_dir="false" flattenhtml="true" allowexternalscript="true" type="BINDATA" compress="gzip" />
      <include name="IDR_SETTINGS_LAZY_LOAD_CRISPER_JS" file="${root_gen_dir}\chrome\browser\resources\settings\lazy_load.crisper.js" use_base_dir="false" flattenhtml="true" type="BINDATA" compress="gzip" />
      <include name="IDR_SETTINGS_MANIFEST" file="manifest.json" type="BINDATA" compress="gzip" />
    </includes>
  </release>
</grit>
