{
  "NAME": {
    "message": "Camera",
    "description": "Name of the Camera App."
  },
  "DESCRIPTION": {
    "message": "Take photos and record videos with your camera.",
    "description": "Short description of the Camera App."
  },
  "ERROR_MSG_FILE_SYSTEM_FAILED": {
    "message": "File system errors.",
    "description": "Error message shown when failing to read or write the file system."
  },
  "ERROR_MSG_NO_CAMERA": {
    "message": "Your camera is currently unavailable.\nPlease check if the camera is properly connected.",
    "description": "Error message shown when it was impossible to connect to the camera due to unavailability."
  },
  "ERROR_MSG_GALLERY_EXPORT_FAILED": {
    "message": "Unable to export $file$",
    "description": "Error message shown when exporting to an external directory failed. Expects a file name to be passed in.",
    "placeholders": {
      "file": {
        "content": "$1",
        "example": "IMG_20160520_000000.jpg"
      }
    }
  },
  "ERROR_MSG_SAVE_FILE_FAILED": {
    "message": "Unable to save the file",
    "description": "Error message shown when saving/adding a image or video to the file system failed."
  },
  "ERROR_MSG_TAKE_PHOTO_FAILED": {
    "message": "Unable to take photo",
    "description": "Error message shown when failing to take photo."
  },
  "ERROR_MSG_TAKE_PORTRAIT_PHOTO_FAILED": {
    "message": "Unable to take portrait photo",
    "description": "Error message shown when failing to take portrait photo."
  },
  "ERROR_MSG_RECORD_START_FAILED": {
    "message": "Unable to start recording",
    "description": "Error message shown when failing to start recording video."
  },
  "ERROR_MSG_EMPTY_RECORDING": {
    "message": "Nothing recorded",
    "description": "Error message shown when no data is recorded for a recording and it won't be added to the gallery."
  },
  "STATUS_MSG_RECORDING_STOPPED": {
    "message": "Recording stopped",
    "description": "Status message for spoken feedback when video recording has been stopped."
  },
  "STATUS_MSG_CAMERA_SWITCHED": {
    "message": "$camera$ active",
    "description": "Status message for spoken feedback when switching over to another camera.",
    "placeholders": {
      "camera": {
        "content": "$1",
        "example": "USB WebCam (12ab:5678) User-facing"
      }
    }
  },
  "GALLERY_BUTTON": {
    "message": "Go to gallery",
    "description": "Label for the gallery button."
  },
  "DELETE_BUTTON": {
    "message": "Delete",
    "description": "Label for the delete button."
  },
  "EXPORT_BUTTON": {
    "message": "Export to disk",
    "description": "Label for the exporting button."
  },
  "PRINT_BUTTON": {
    "message": "Print",
    "description": "Label for the printing button."
  },
  "BACK_BUTTON": {
    "message": "Go back",
    "description": "Label for the back button."
  },
  "GALLERY_IMAGES": {
    "message": "Gallery images",
    "description": "Text to speech label for the gallery list."
  },
  "SETTINGS_BUTTON": {
    "message": "Settings",
    "description": "Label for the settings button."
  },
  "GRID_TYPE_BUTTON": {
    "message": "Grid type",
    "description": "Label for the button of grid-type options."
  },
  "TIMER_DURATION_BUTTON": {
    "message": "Timer duration",
    "description": "Label for the button of timer-duration options."
  },
  "FEEDBACK_BUTTON": {
    "message": "Send feedback",
    "description": "Label for the feedback button."
  },
  "HELP_BUTTON": {
    "message": "Help",
    "description": "Label for the help button."
  },
  "LABEL_GRID_3X3": {
    "message": "3 x 3",
    "description": "Label for for grid-type: 3x3."
  },
  "ARIA_GRID_3X3": {
    "message": "3 by 3",
    "description": "Label for spoken feedback to read out grid-type: 3x3."
  },
  "LABEL_GRID_4X4": {
    "message": "4 x 4",
    "description": "Label for for grid-type: 4x4."
  },
  "ARIA_GRID_4X4": {
    "message": "4 by 4",
    "description": "Label for spoken feedback to read out grid-type: 4x4."
  },
  "LABEL_GRID_GOLDEN": {
    "message": "Golden ratio",
    "description": "Label for grid-type: golden ratio."
  },
  "LABEL_TIMER_3S": {
    "message": "3 seconds",
    "description": "Label for timer-duration: 3 seconds."
  },
  "LABEL_TIMER_10S": {
    "message": "10 seconds",
    "description": "Label for timer-duration: 10 seconds."
  },
  "TAKE_PHOTO_BUTTON": {
    "message": "Take photo",
    "description": "Label for the shutter button to take photo."
  },
  "TAKE_PHOTO_CANCEL_BUTTON": {
    "message": "Stop taking photo",
    "description": "Label for the shutter button to cancel countdown timer and stop taking photo."
  },
  "RECORD_VIDEO_START_BUTTON": {
    "message": "Start recording",
    "description": "Label for the shutter button to start recording."
  },
  "RECORD_VIDEO_STOP_BUTTON": {
    "message": "Stop recording",
    "description": "Label for the shutter button to stop recording."
  },
  "SWITCH_CAMERA_BUTTON": {
    "message": "Switch to next camera",
    "description": "Label for the button to switch to next connected camera. Eg. switching from front facing to back facing, or a camera connected via USB. The button is shown only when more than one camera is connected."
  },
  "SWITCH_RECORD_VIDEO_BUTTON": {
    "message": "Switch to record video",
    "description": "Label for spoken feedback to read out switch to record video mode button."
  },
  "LABEL_SWITCH_RECORD_VIDEO_BUTTON": {
    "message": "Video",
    "description": "Label for the button to switch to record video mode."
  },
  "SWITCH_TAKE_PHOTO_BUTTON": {
    "message": "Switch to take photo",
    "description": "Label for spoken feedback to read out switch to take photo mode button."
  },
  "LABEL_SWITCH_TAKE_PHOTO_BUTTON": {
    "message": "Photo",
    "description": "Label for the button to switch to take photo mode."
  },
  "SWITCH_TAKE_SQUARE_PHOTO_BUTTON": {
    "message": "Switch to take square photo",
    "description": "Label for spoken feedback to read out switch to take square photo mode button."
  },
  "LABEL_SWITCH_TAKE_SQUARE_PHOTO_BUTTON": {
    "message": "Square",
    "description": "Label for the button to switch to take square photo mode."
  },
  "SWITCH_TAKE_PORTRAIT_PHOTO_BUTTON": {
    "message": "Switch to take portrait photo",
    "description": "Label for spoken feedback to read out switch to take portrait photo mode button."
  },
  "LABEL_SWITCH_TAKE_PORTRAIT_PHOTO_BUTTON": {
    "message": "Portrait",
    "description": "Label for the button to switch to take portrait photo mode."
  },
  "TOGGLE_TIMER_BUTTON": {
    "message": "Timer",
    "description": "Label for the checkbox to toggle the countdown timer."
  },
  "TOGGLE_MIRROR_BUTTON": {
    "message": "Mirroring",
    "description": "Label for the checkbox to toggle the preview mirroring. Eg. if mirroring is toggled on, preview will be flipped horizontally."
  },
  "TOGGLE_GRID_BUTTON": {
    "message": "Grid",
    "description": "Label for the checkbox to toggle the grid shown on preview."
  },
  "TOGGLE_MIC_BUTTON": {
    "message": "Microphone",
    "description": "Label for the checkbox to toggle the microphone for recording video."
  },
  "DIALOG_OK_BUTTON": {
    "message": "OK",
    "description": "Label for the accepting button in the dialog."
  },
  "DIALOG_CANCEL_BUTTON": {
    "message": "Cancel",
    "description": "Label for the dismissing button in the dialog."
  },
  "DELETE_CONFIRMATION_MSG": {
    "message": "Do you really want to remove $file$?",
    "description": "Confirmation message before removing a selected item from the gallery. Expects a file name to be passed in.",
    "placeholders": {
      "file": {
        "content": "$1",
        "example": "IMG_20160520_000000.jpg."
      }
    }
  },
  "DELETE_MULTI_CONFIRMATION_MSG": {
    "message": "Do you really want to remove $count$ items?",
    "description": "Confirmation message before removing multiple selected items from the gallery. Expects a file count to be passed in.",
    "placeholders": {
      "count": {
        "content": "$1",
        "example": "20."
      }
    }
  },
  "MIGRATE_PICTURES_MSG": {
    "message": "Photos and videos taken with the camera will be moved to the Downloads folder. You can access them in Files.\n\nApps with storage permissions will have access to your photos and videos.",
    "description": "Message shown before moving all photos and videos stored in the Camera App to the Downloads folder."
  }
}